%YAML 1.1
%TAG !u! tag:unity3d.com,2011:
--- !u!1 &1926820321215722
GameObject:
  m_ObjectHideFlags: 0
  m_CorrespondingSourceObject: {fileID: 0}
  m_PrefabInstance: {fileID: 0}
  m_PrefabAsset: {fileID: 0}
  serializedVersion: 6
  m_Component:
  - component: {fileID: 4321637659532550}
  - component: {fileID: 137288393269368280}
  - component: {fileID: 114711730804593962}
  - component: {fileID: 65898942980606932}
  - component: {fileID: 114308189016877150}
  m_Layer: 10
  m_Name: Enid_Arms
  m_TagString: Untagged
  m_Icon: {fileID: 0}
  m_NavMeshLayer: 0
  m_StaticEditorFlags: 0
  m_IsActive: 1
--- !u!4 &4321637659532550
Transform:
  m_ObjectHideFlags: 0
  m_CorrespondingSourceObject: {fileID: 0}
  m_PrefabInstance: {fileID: 0}
  m_PrefabAsset: {fileID: 0}
  m_GameObject: {fileID: 1926820321215722}
  serializedVersion: 2
  m_LocalRotation: {x: 0.00000014901161, y: 0.70710707, z: -0.00000043958457, w: 0.7071067}
  m_LocalPosition: {x: 0.09131927, y: 0.9483136, z: 0.18431437}
  m_LocalScale: {x: 1, y: 1, z: 1}
  m_ConstrainProportionsScale: 0
  m_Children: []
  m_Father: {fileID: 0}
  m_LocalEulerAnglesHint: {x: 0, y: 0, z: 0}
--- !u!137 &137288393269368280
SkinnedMeshRenderer:
  m_ObjectHideFlags: 0
  m_CorrespondingSourceObject: {fileID: 0}
  m_PrefabInstance: {fileID: 0}
  m_PrefabAsset: {fileID: 0}
  m_GameObject: {fileID: 1926820321215722}
  m_Enabled: 1
  m_CastShadows: 1
  m_ReceiveShadows: 1
  m_DynamicOccludee: 1
  m_StaticShadowCaster: 0
  m_MotionVectors: 1
  m_LightProbeUsage: 1
  m_ReflectionProbeUsage: 1
  m_RayTracingMode: 3
  m_RayTraceProcedural: 0
  m_RenderingLayerMask: 4294967295
  m_RendererPriority: 0
  m_Materials:
  - {fileID: 2100000, guid: 82ac596b3320a3f4aa1429e8ed959b01, type: 2}
  - {fileID: 2100000, guid: a36891ef068034a4e805a10b28bf0d4c, type: 2}
  m_StaticBatchInfo:
    firstSubMesh: 0
    subMeshCount: 0
  m_StaticBatchRoot: {fileID: 0}
  m_ProbeAnchor: {fileID: 0}
  m_LightProbeVolumeOverride: {fileID: 0}
  m_ScaleInLightmap: 1
  m_ReceiveGI: 1
  m_PreserveUVs: 0
  m_IgnoreNormalsForChartDetection: 0
  m_ImportantGI: 0
  m_StitchLightmapSeams: 0
  m_SelectedEditorRenderState: 3
  m_MinimumChartSize: 4
  m_AutoUVMaxDistance: 0.5
  m_AutoUVMaxAngle: 89
  m_LightmapParameters: {fileID: 0}
  m_SortingLayerID: 0
  m_SortingLayer: 0
  m_SortingOrder: 0
  serializedVersion: 2
  m_Quality: 0
  m_UpdateWhenOffscreen: 0
  m_SkinnedMotionVectors: 1
  m_Mesh: {fileID: 4300002, guid: c9ac174c60af75643b30d8cb18f21797, type: 3}
  m_Bones:
  - {fileID: 0}
  - {fileID: 0}
  m_BlendShapeWeights: []
  m_RootBone: {fileID: 0}
  m_AABB:
    m_Center: {x: -0.2745554, y: -0.053943396, z: -0.0060262997}
    m_Extent: {x: 0.53030556, y: 0.13208449, z: 0.02747284}
  m_DirtyAABB: 0
--- !u!114 &114711730804593962
MonoBehaviour:
  m_ObjectHideFlags: 0
  m_CorrespondingSourceObject: {fileID: 0}
  m_PrefabInstance: {fileID: 0}
  m_PrefabAsset: {fileID: 0}
  m_GameObject: {fileID: 1926820321215722}
  m_Enabled: 1
  m_EditorHideFlags: 0
  m_Script: {fileID: 11500000, guid: dde714d5be678254a81a53b51820bbb4, type: 3}
  m_Name: 
  m_EditorClassIdentifier: 
  _transparent: 0
  _occlusion: 0
  _occlusionCull: 0
  renderer: {fileID: 137288393269368280}
  sharedMaterials:
  - {fileID: 2100000, guid: 82ac596b3320a3f4aa1429e8ed959b01, type: 2}
  - {fileID: 2100000, guid: a36891ef068034a4e805a10b28bf0d4c, type: 2}
  subMeshIndex: 0
  eraseRenderer: 0
--- !u!65 &65898942980606932
BoxCollider:
  m_ObjectHideFlags: 0
  m_CorrespondingSourceObject: {fileID: 0}
  m_PrefabInstance: {fileID: 0}
  m_PrefabAsset: {fileID: 0}
  m_GameObject: {fileID: 1926820321215722}
  m_Material: {fileID: 0}
  m_IncludeLayers:
    serializedVersion: 2
    m_Bits: 0
  m_ExcludeLayers:
    serializedVersion: 2
    m_Bits: 0
  m_LayerOverridePriority: 0
  m_IsTrigger: 1
  m_ProvidesContacts: 0
  m_Enabled: 1
  serializedVersion: 3
  m_Size: {x: 0.75, y: 0.23, z: 0.18}
  m_Center: {x: -0.34, y: 0, z: 0}
--- !u!114 &114308189016877150
MonoBehaviour:
  m_ObjectHideFlags: 0
  m_CorrespondingSourceObject: {fileID: 0}
  m_PrefabInstance: {fileID: 0}
  m_PrefabAsset: {fileID: 0}
  m_GameObject: {fileID: 1926820321215722}
  m_Enabled: 1
  m_EditorHideFlags: 0
  m_Script: {fileID: 11500000, guid: 41c5d7ad0bdf98445be154003ad4f345, type: 3}
  m_Name: 
  m_EditorClassIdentifier: 
